<?xml version="1.0" encoding="utf-8"?>
<!-- Generator: Adobe Illustrator 17.1.0, SVG Export Plug-In . SVG Version: 6.00 Build 0)  -->
<!DOCTYPE svg PUBLIC "-//W3C//DTD SVG 1.1//EN" "http://www.w3.org/Graphics/SVG/1.1/DTD/svg11.dtd">
<svg version="1.1" id="Ebene_1" xmlns="http://www.w3.org/2000/svg" xmlns:xlink="http://www.w3.org/1999/xlink" x="0px" y="0px"
	 viewBox="0 0 104.29 104.29" enable-background="new 0 0 104.29 104.29" xml:space="preserve">
<path fill="#010202" d="M104.267,52.145c0,28.794-23.343,52.136-52.136,52.136S-0.004,80.939-0.004,52.145
	S23.337,0.009,52.131,0.009S104.267,23.351,104.267,52.145"/>
<g>
	<path fill="#fff" d="M37.251,36.832h6.272v19.732c0,9.949,4.765,14.715,14.129,14.715c2.76,0,5.77-0.335,8.864-1.254
		c0.418-0.084,0.667-0.418,0.584-0.836l-0.584-8.445c-0.086-0.5-0.502-0.835-1.09-0.753c-2.423,0.336-4.096,0.503-5.351,0.503
		c-2.675,0-4.096-1.172-4.096-4.516V36.832h9.447c0.502,0,0.836-0.335,0.836-0.836v-8.61c0-0.502-0.335-0.838-0.836-0.838h-9.447
		V14.759c0-0.835-0.669-1.254-1.421-0.92L43.94,18.772c-0.251,0.084-0.418,0.335-0.418,0.67v7.105H37.25
		c-0.502,0-0.836,0.336-0.836,0.838v8.61C36.414,36.497,36.749,36.832,37.251,36.832z"/>
	<path fill="#fff" d="M66.248,77.706h-9.169H44.621h-7.433c-0.502,0-0.836,0.335-0.836,0.839v8.612
		c0,0.499,0.335,0.834,0.836,0.834h7.433H57.08h9.169c0.502,0,0.835-0.335,0.835-0.834v-8.612
		C67.084,78.041,66.75,77.706,66.248,77.706z"/>
</g>
</svg>
